{
  "version" : "1.0.0",
  "name" : "Simple Algebra Example",
  "description" : "This example performs the following function: ((x+5)*10)^2. This is because this function is reversible over all positive integers and hence we can perform propert rectification.",
  "programs" : {
    "calc" : {
      "hooks" : [
        "hooks.plus_five",
        "hooks.times_ten",
        "hooks.power_two"
      ],
      "args" : {
        "x" : {
          "description" : "This is the input for the calc program.",
          "type" : "int",
          "required" : false,
          "default" : 5
        }
      },
      "outputs" : {
        "x" : {
          "description" : "This is the output of the calc program.",
          "type" : "int",
          "required" : true
        },
        "test_default_output" : {
          "description" : "This is a test argument on the output to demonstrate default arguments.",
          "type" : "string",
          "required" : false,
          "default" : "seventeen"
        }
      }
    }
  },
  "hooks" : {
    "plus_five" : {
      "reference" : "simple_algebra_example.hooks.calc.plus_five",
      "dependencies" : [],
      "rectifiers" : ["hooks.minus_five"],
      "args" : {
        "x" : {
          "type" : "int",
          "required" : true
        },
        "test_default_hook_arg" : {
          "description" : "This is a test argument on a hook to demonstrate default arguments.",
          "type" : "string",
          "required" : false,
          "default" : "eighty four"
        }
      }
    },
    "times_ten" : {
      "reference" : "simple_algebra_example.hooks.calc.times_ten",
      "dependencies" : [],
      "rectifiers" : ["hooks.divide_ten"],
      "args" : {
        "x" : {
          "type" : "int",
          "required" : true
        },
        "test_default_hook_arg" : {
          "description" : "This is a test argument on a hook to demonstrate default arguments.",
          "type" : "int",
          "required" : false,
          "default" : 84
        }
      }
    },
    "power_two" : {
      "reference" : "simple_algebra_example.hooks.calc.power_two",
      "dependencies" : [],
      "rectifiers" : ["hooks.sqrt"],
      "args" : {
        "x" : {
          "type" : "int",
          "required" : true
        }
      }
    },
    "minus_five" : {
      "reference" : "simple_algebra_example.hooks.uncalc.minus_five",
      "dependencies" : [],
      "rectifiers" : [],
      "args" : {
        "x" : {
          "type" : "int",
          "required" : true
        }
      }
    },
    "divide_ten" : {
      "reference" : "simple_algebra_example.hooks.uncalc.divide_ten",
      "dependencies" : [],
      "rectifiers" : [],
      "args" : {
        "x" : {
          "type" : "int",
          "required" : true
        }
      }
    },
    "sqrt" : {
      "reference" : "simple_algebra_example.hooks.uncalc.sqrt",
      "dependencies" : [],
      "rectifiers" : [],
      "args" : {
        "x" : {
          "type" : "int",
          "required" : true
        }
      }
    }
  }
}
